Engine/Binaries/Win64/UE4Game.exe	2018-10-29T13:27:24.938Z
Engine/Extras/Redist/en-us/UE4PrereqSetup_x64.exe	2018-10-29T13:29:02.261Z
Engine/Binaries/ThirdParty/Oculus/OVRPlugin/OVRPlugin/Win64/OVRPlugin.dll	2018-10-29T13:26:40.743Z
Engine/Binaries/ThirdParty/NVIDIA/NVaftermath/Win64/GFSDK_Aftermath_Lib.x64.dll	2018-10-29T13:26:40.112Z
Engine/Binaries/ThirdParty/Windows/DirectX/x64/WinPixEventRuntime.dll	2018-10-29T13:26:48.673Z
Engine/Binaries/ThirdParty/PhysX3/Win64/VS2015/PxFoundationPROFILE_x64.dll	2018-10-29T13:26:45.919Z
Engine/Binaries/ThirdParty/PhysX3/Win64/VS2015/PxPvdSDKPROFILE_x64.dll	2018-10-29T13:26:45.948Z
Engine/Binaries/ThirdParty/PhysX3/Win64/VS2015/PhysX3PROFILE_x64.dll	2018-10-29T13:26:45.894Z
Engine/Binaries/ThirdParty/PhysX3/Win64/VS2015/PhysX3CookingPROFILE_x64.dll	2018-10-29T13:26:45.873Z
Engine/Binaries/ThirdParty/PhysX3/Win64/VS2015/PhysX3CommonPROFILE_x64.dll	2018-10-29T13:26:45.845Z
Engine/Binaries/ThirdParty/PhysX3/Win64/VS2015/APEX_ClothingPROFILE_x64.dll	2018-10-29T13:26:45.642Z
Engine/Binaries/ThirdParty/PhysX3/Win64/VS2015/APEX_LegacyPROFILE_x64.dll	2018-10-29T13:26:45.725Z
Engine/Binaries/ThirdParty/PhysX3/Win64/VS2015/ApexFrameworkPROFILE_x64.dll	2018-10-29T13:26:45.760Z
Engine/Binaries/ThirdParty/PhysX3/Win64/VS2015/NvClothPROFILE_x64.dll	2018-10-29T13:26:45.787Z
Engine/Binaries/ThirdParty/Ogg/Win64/VS2015/libogg_64.dll	2018-10-29T13:26:40.774Z
Engine/Binaries/ThirdParty/Vorbis/Win64/VS2015/libvorbis_64.dll	2018-10-29T13:26:48.624Z
Engine/Binaries/ThirdParty/Vorbis/Win64/VS2015/libvorbisfile_64.dll	2018-10-29T13:26:48.634Z
Engine/Binaries/ThirdParty/OpenVR/OpenVRv1_0_10/Win64/openvr_api.dll	2018-10-29T13:26:40.885Z
TicTacToe.exe	2020-05-15T21:15:32.669Z
